### script: extract_geo_metadata.py version: 2020 05 27 19:39:25
# run on:   2020 05 27 19:40:12
# cmd:      get_metadata_from_geo/extract_geo_metadata.py /Users/robertmoseley/Desktop/Haase_lab/vivax-malaria/host_vivax_coupling/data/original/GSE56931/GSE56931_series_matrix.txt
# params:   data_path: /Users/robertmoseley/Desktop/Haase_lab/vivax-malaria/host_vivax_coupling/data/original/GSE56931/GSE56931_series_matrix.txt
#
# subset of: GSE56931_metadata.tsv
#   using patient BH005
#!Series_title	Blood gene expression reveals reduced circadian rhythmicity in individuals resistant to sleep deprivation
#!Series_geo_accession	GSE56931
#!Series_status	Public on Oct 02 2014
#!Series_submission_date	Apr 21 2014
#!Series_last_update_date	Mar 04 2015
#!Series_pubmed_id	25197809
#!Series_summary	To address whether changes in gene expression in blood cells with sleep loss are different in individuals resistant and sensitive to sleep deprivation (SD)., Blood draws every 4 hours during a 3-day study: 24-hour normal baseline, 38 hours of continuous wakefulness and subsequent recovery sleep, for a total of 19 time-points per subject, with every 2-hr psychomotor vigilance test (PVT) assessment when awake. Fourteen subjects who were previously identified as behaviourally resistant (n=7) or sensitive (n=7) to SD by PVT.  Intervention consisted of 38 hours continuous wakefulness. We found 4,481 unique genes with a significant 24-hour diurnal rhythm during a normal sleep-wake cycle in blood (false discovery rate [FDR] <5%). Biological pathways were enriched for biosynthetic processes during sleep. After accounting for circadian effects, two genes (SREBF1 and CPT1A, both involved in lipid metabolism) exhibited small, but significant, linear changes in expression with the duration of SD (FDR<5%). The main change with SD was a reduction in the amplitude of the diurnal rhythm of expression of normally cycling probe sets. This reduction was noticeably higher in behaviourally resistant subjects than sensitive subjects, at any given p-value. Furthermore, blood cell type enrichment analysis showed that the expression pattern difference between sensitive and resistant subjects is mainly found in cells of myeloid origin, such as monocytes. Individual differences in behavioural effects of sleep deprivation are associated with differences in diurnal amplitude of gene expression for genes that show circadian rhythmicity.
#!Series_overall_design	Blood draws were done every 4 hours during a 3-day (+1 baseline day) study: 24-hour normal baseline (6 time points: day 1 8hr, 12hr, 16hr, 20hr, day 2 0hr, 4hr), 38 hours of continuous wakefulness (10 time points: day 2 8hr, 12hr, 16hr, 20hr, day 3 0hr, 4hr, 8hr, 12hr, 16hr, 20hr) and subsequent recovery sleep (3 time points: day 4 0hr, 4hr, 8hr), for a total of 19 time-points per subject, with every 2-hr psychomotor vigilance test (PVT) assessment when awake. The missing/failed samples were as following: Resistant subjects (total 10 samples): BH006 day 2 20hr, 12hr, BH003 day 2 12hr, 4hr, BH003 day 3 4hr, BH008 day 4 0hr, BH008 day 1 16hr, BH008 day 3 16hr 20hr, BH010 day 4 0hr; Sensitive subjects (total 7 samples): BH004 day 2 12hr and 1 more missing sample, BH026 day 2 4hr, BH007 day 2 20hr and 1 more missing sample, BH016 day 2 4hr, BH015 day 3 0hr.
#
# 
title	geo_accession	file	experiment	condition	patient_id	hour	day	organism	characteristics	pvt_response	sample_type	sex
patient BH005, high responder, female, day1, hour 8, baseline	GSM1371594	GSM1371594__52070900796942030810407110111898_1_1.CEL.gz	Shockley2014	baseline	BH005	8	1	Homo sapiens	patient: BH005, responder: high, Sex: female, day: 1, hour: 8, biological group: baseline	high responder	RNA	female
patient BH005, high responder, female, day1, hour12, baseline	GSM1371701	GSM1371701__52070900797042031010407111221690_1_1.CEL.gz	Shockley2014	baseline	BH005	12	1	Homo sapiens	patient: BH005, responder: high, Sex: female, day: 1, hour: 12, biological group: baseline	high responder	RNA	female
patient BH005, high responder, female, day1, hour16, baseline	GSM1371591	GSM1371591__52070900796942030810407110111882_1_1.CEL.gz	Shockley2014	baseline	BH005	16	1	Homo sapiens	patient: BH005, responder: high, Sex: female, day: 1, hour: 16, biological group: baseline	high responder	RNA	female
patient BH005, high responder, female, day1, hour20, baseline	GSM1371590	GSM1371590__52070900796942030810407110111877_1_1.CEL.gz	Shockley2014	baseline	BH005	20	1	Homo sapiens	patient: BH005, responder: high, Sex: female, day: 1, hour: 20, biological group: baseline	high responder	RNA	female
patient BH005, high responder, female, day2, hour 0, baseline	GSM1371596	GSM1371596__52070900796943030810407110111946_1_1.CEL.gz	Shockley2014	baseline	BH005	0	2	Homo sapiens	patient: BH005, responder: high, Sex: female, day: 2, hour: 0, biological group: baseline	high responder	RNA	female
patient BH005, high responder, female, day2, hour 4, baseline	GSM1371588	GSM1371588__52070900796934030810407096011647_1_1.CEL.gz	Shockley2014	baseline	BH005	4	2	Homo sapiens	patient: BH005, responder: high, Sex: female, day: 2, hour: 4, biological group: baseline	high responder	RNA	female
patient BH005, high responder, female, day2, hour 8, baseline	GSM1371598	GSM1371598__52070900796943030810407110111959_1_1.CEL.gz	Shockley2014	baseline	BH005	8	2	Homo sapiens	patient: BH005, responder: high, Sex: female, day: 2, hour: 8, biological group: baseline	high responder	RNA	female
patient BH005, high responder, female, day2, hour12, baseline	GSM1371607	GSM1371607__52070900797016030910407110619105_1_1.CEL.gz	Shockley2014	baseline	BH005	12	2	Homo sapiens	patient: BH005, responder: high, Sex: female, day: 2, hour: 12, biological group: baseline	high responder	RNA	female
patient BH005, high responder, female, day2, hour16, baseline	GSM1371602	GSM1371602__52070900796943030810407110111977_1_1.CEL.gz	Shockley2014	baseline	BH005	16	2	Homo sapiens	patient: BH005, responder: high, Sex: female, day: 2, hour: 16, biological group: baseline	high responder	RNA	female
patient BH005, high responder, female, day2, hour20, baseline	GSM1371601	GSM1371601__52070900796943030810407110111975_1_1.CEL.gz	Shockley2014	baseline	BH005	20	2	Homo sapiens	patient: BH005, responder: high, Sex: female, day: 2, hour: 20, biological group: baseline	high responder	RNA	female
patient BH005, high responder, female, day3, hour 0, sleepdep	GSM1371609	GSM1371609__52070900797016030910407110619109_1_1.CEL.gz	Shockley2014	sleepdep	BH005	0	3	Homo sapiens	patient: BH005, responder: high, Sex: female, day: 3, hour: 0, biological group: sleep deprivation	high responder	RNA	female
patient BH005, high responder, female, day3, hour 4, sleepdep	GSM1371603	GSM1371603__52070900796944030810407110212257_1_1.CEL.gz	Shockley2014	sleepdep	BH005	4	3	Homo sapiens	patient: BH005, responder: high, Sex: female, day: 3, hour: 4, biological group: sleep deprivation	high responder	RNA	female
patient BH005, high responder, female, day3, hour 8, sleepdep	GSM1371595	GSM1371595__52070900796943030810407110111945_1_1.CEL.gz	Shockley2014	sleepdep	BH005	8	3	Homo sapiens	patient: BH005, responder: high, Sex: female, day: 3, hour: 8, biological group: sleep deprivation	high responder	RNA	female
patient BH005, high responder, female, day3, hour12, sleepdep	GSM1371611	GSM1371611__52070900797016030910407110619129_1_1.CEL.gz	Shockley2014	sleepdep	BH005	12	3	Homo sapiens	patient: BH005, responder: high, Sex: female, day: 3, hour: 12, biological group: sleep deprivation	high responder	RNA	female
patient BH005, high responder, female, day3, hour16, sleepdep	GSM1371606	GSM1371606__52070900797015030910407110619062_1_1.CEL.gz	Shockley2014	sleepdep	BH005	16	3	Homo sapiens	patient: BH005, responder: high, Sex: female, day: 3, hour: 16, biological group: sleep deprivation	high responder	RNA	female
patient BH005, high responder, female, day3, hour20, sleepdep	GSM1371597	GSM1371597__52070900796943030810407110111947_1_1.CEL.gz	Shockley2014	sleepdep	BH005	20	3	Homo sapiens	patient: BH005, responder: high, Sex: female, day: 3, hour: 20, biological group: sleep deprivation	high responder	RNA	female
patient BH005, high responder, female, day4, hour 0, recovery	GSM1371593	GSM1371593__52070900796942030810407110111897_1_1.CEL.gz	Shockley2014	recovery	BH005	0	4	Homo sapiens	patient: BH005, responder: high, Sex: female, day: 4, hour: 0, biological group: recovery	high responder	RNA	female
patient BH005, high responder, female, day4, hour 4, recovery	GSM1371610	GSM1371610__52070900797016030910407110619127_1_1.CEL.gz	Shockley2014	recovery	BH005	4	4	Homo sapiens	patient: BH005, responder: high, Sex: female, day: 4, hour: 4, biological group: recovery	high responder	RNA	female
patient BH005, high responder, female, day4, hour 8, recovery	GSM1371608	GSM1371608__52070900797016030910407110619108_1_1.CEL.gz	Shockley2014	recovery	BH005	8	4	Homo sapiens	patient: BH005, responder: high, Sex: female, day: 4, hour: 8, biological group: recovery	high responder	RNA	female
