### script: extract_geo_metadata.py version: 2020 05 27 19:39:25
# run on:   2020 05 27 19:40:12
# cmd:      get_metadata_from_geo/extract_geo_metadata.py /Users/robertmoseley/Desktop/Haase_lab/vivax-malaria/host_vivax_coupling/data/original/GSE56931/GSE56931_series_matrix.txt
# params:   data_path: /Users/robertmoseley/Desktop/Haase_lab/vivax-malaria/host_vivax_coupling/data/original/GSE56931/GSE56931_series_matrix.txt
#
# subset of: GSE56931_metadata.tsv
#   using patient BH003
#!Series_title	Blood gene expression reveals reduced circadian rhythmicity in individuals resistant to sleep deprivation
#!Series_geo_accession	GSE56931
#!Series_status	Public on Oct 02 2014
#!Series_submission_date	Apr 21 2014
#!Series_last_update_date	Mar 04 2015
#!Series_pubmed_id	25197809
#!Series_summary	To address whether changes in gene expression in blood cells with sleep loss are different in individuals resistant and sensitive to sleep deprivation (SD)., Blood draws every 4 hours during a 3-day study: 24-hour normal baseline, 38 hours of continuous wakefulness and subsequent recovery sleep, for a total of 19 time-points per subject, with every 2-hr psychomotor vigilance test (PVT) assessment when awake. Fourteen subjects who were previously identified as behaviourally resistant (n=7) or sensitive (n=7) to SD by PVT.  Intervention consisted of 38 hours continuous wakefulness. We found 4,481 unique genes with a significant 24-hour diurnal rhythm during a normal sleep-wake cycle in blood (false discovery rate [FDR] <5%). Biological pathways were enriched for biosynthetic processes during sleep. After accounting for circadian effects, two genes (SREBF1 and CPT1A, both involved in lipid metabolism) exhibited small, but significant, linear changes in expression with the duration of SD (FDR<5%). The main change with SD was a reduction in the amplitude of the diurnal rhythm of expression of normally cycling probe sets. This reduction was noticeably higher in behaviourally resistant subjects than sensitive subjects, at any given p-value. Furthermore, blood cell type enrichment analysis showed that the expression pattern difference between sensitive and resistant subjects is mainly found in cells of myeloid origin, such as monocytes. Individual differences in behavioural effects of sleep deprivation are associated with differences in diurnal amplitude of gene expression for genes that show circadian rhythmicity.
#!Series_overall_design	Blood draws were done every 4 hours during a 3-day (+1 baseline day) study: 24-hour normal baseline (6 time points: day 1 8hr, 12hr, 16hr, 20hr, day 2 0hr, 4hr), 38 hours of continuous wakefulness (10 time points: day 2 8hr, 12hr, 16hr, 20hr, day 3 0hr, 4hr, 8hr, 12hr, 16hr, 20hr) and subsequent recovery sleep (3 time points: day 4 0hr, 4hr, 8hr), for a total of 19 time-points per subject, with every 2-hr psychomotor vigilance test (PVT) assessment when awake. The missing/failed samples were as following: Resistant subjects (total 10 samples): BH006 day 2 20hr, 12hr, BH003 day 2 12hr, 4hr, BH003 day 3 4hr, BH008 day 4 0hr, BH008 day 1 16hr, BH008 day 3 16hr 20hr, BH010 day 4 0hr; Sensitive subjects (total 7 samples): BH004 day 2 12hr and 1 more missing sample, BH026 day 2 4hr, BH007 day 2 20hr and 1 more missing sample, BH016 day 2 4hr, BH015 day 3 0hr.
#
# 
title	geo_accession	file	experiment	condition	patient_id	hour	day	organism	characteristics	pvt_response	sample_type	sex
patient BH003, low responder, female, day1, hour 8, baseline	GSM1371762	GSM1371762__52070900797043031010407111221772_1_1.CEL.gz	Shockley2014	baseline	BH003	8	1	Homo sapiens	patient: BH003, responder: low, Sex: female, day: 1, hour: 8, biological group: baseline	low responder	RNA	female
patient BH003, low responder, female, day1, hour12, baseline	GSM1371764	GSM1371764__52070900797043031010407111221774_1_1.CEL.gz	Shockley2014	baseline	BH003	12	1	Homo sapiens	patient: BH003, responder: low, Sex: female, day: 1, hour: 12, biological group: baseline	low responder	RNA	female
patient BH003, low responder, female, day1, hour16, baseline	GSM1371777	GSM1371777__52070900797044031010407111221806_1_1.CEL.gz	Shockley2014	baseline	BH003	16	1	Homo sapiens	patient: BH003, responder: low, Sex: female, day: 1, hour: 16, biological group: baseline	low responder	RNA	female
patient BH003, low responder, female, day1, hour20, baseline	GSM1371776	GSM1371776__52070900797044031010407111221799_1_1.CEL.gz	Shockley2014	baseline	BH003	20	1	Homo sapiens	patient: BH003, responder: low, Sex: female, day: 1, hour: 20, biological group: baseline	low responder	RNA	female
patient BH003, low responder, female, day2, hour 0, baseline	GSM1371758	GSM1371758__52070900797043031010407111221767_1_1.CEL.gz	Shockley2014	baseline	BH003	0	2	Homo sapiens	patient: BH003, responder: low, Sex: female, day: 2, hour: 0, biological group: baseline	low responder	RNA	female
patient BH003, low responder, female, day2, hour 8, baseline	GSM1371821	GSM1371821__52070900797045031010407111221890_1_1.CEL.gz	Shockley2014	baseline	BH003	8	2	Homo sapiens	patient: BH003, responder: low, Sex: female, day: 2, hour: 8, biological group: baseline	low responder	RNA	female
patient BH003, low responder, female, day2, hour16, baseline	GSM1371725	GSM1371725__52070900797042031010407111221718_1_1.CEL.gz	Shockley2014	baseline	BH003	16	2	Homo sapiens	patient: BH003, responder: low, Sex: female, day: 2, hour: 16, biological group: baseline	low responder	RNA	female
patient BH003, low responder, female, day2, hour20, baseline	GSM1371703	GSM1371703__52070900797042031010407111221693_1_1.CEL.gz	Shockley2014	baseline	BH003	20	2	Homo sapiens	patient: BH003, responder: low, Sex: female, day: 2, hour: 20, biological group: baseline	low responder	RNA	female
patient BH003, low responder, female, day3, hour 0, sleepdep	GSM1371760	GSM1371760__52070900797043031010407111221769_1_1.CEL.gz	Shockley2014	sleepdep	BH003	0	3	Homo sapiens	patient: BH003, responder: low, Sex: female, day: 3, hour: 0, biological group: sleep deprivation	low responder	RNA	female
patient BH003, low responder, female, day3, hour 8, sleepdep	GSM1371748	GSM1371748__52070900797043031010407111221756_1_1.CEL.gz	Shockley2014	sleepdep	BH003	8	3	Homo sapiens	patient: BH003, responder: low, Sex: female, day: 3, hour: 8, biological group: sleep deprivation	low responder	RNA	female
patient BH003, low responder, female, day3, hour12, sleepdep	GSM1371778	GSM1371778__52070900797044031010407111221809_1_1.CEL.gz	Shockley2014	sleepdep	BH003	12	3	Homo sapiens	patient: BH003, responder: low, Sex: female, day: 3, hour: 12, biological group: sleep deprivation	low responder	RNA	female
patient BH003, low responder, female, day3, hour16, sleepdep	GSM1371766	GSM1371766__52070900797043031010407111221778_1_1.CEL.gz	Shockley2014	sleepdep	BH003	16	3	Homo sapiens	patient: BH003, responder: low, Sex: female, day: 3, hour: 16, biological group: sleep deprivation	low responder	RNA	female
patient BH003, low responder, female, day3, hour20, sleepdep	GSM1371792	GSM1371792__52070900797045031010407111221859_1_1.CEL.gz	Shockley2014	sleepdep	BH003	20	3	Homo sapiens	patient: BH003, responder: low, Sex: female, day: 3, hour: 20, biological group: sleep deprivation	low responder	RNA	female
patient BH003, low responder, female, day4, hour 0, recovery	GSM1371783	GSM1371783__52070900797044031010407111221822_1_1.CEL.gz	Shockley2014	recovery	BH003	0	4	Homo sapiens	patient: BH003, responder: low, Sex: female, day: 4, hour: 0, biological group: recovery	low responder	RNA	female
patient BH003, low responder, female, day4, hour 4, recovery	GSM1371823	GSM1371823__52070900797045031010407111221894_1_1.CEL.gz	Shockley2014	recovery	BH003	4	4	Homo sapiens	patient: BH003, responder: low, Sex: female, day: 4, hour: 4, biological group: recovery	low responder	RNA	female
patient BH003, low responder, female, day4, hour 8, recovery	GSM1371803	GSM1371803__52070900797045031010407111221871_1_1.CEL.gz	Shockley2014	recovery	BH003	8	4	Homo sapiens	patient: BH003, responder: low, Sex: female, day: 4, hour: 8, biological group: recovery	low responder	RNA	female
