### script: extract_geo_metadata.py version: 2020 05 27 19:39:25
# run on:   2020 05 27 19:40:12
# cmd:      get_metadata_from_geo/extract_geo_metadata.py /Users/robertmoseley/Desktop/Haase_lab/vivax-malaria/host_vivax_coupling/data/original/GSE56931/GSE56931_series_matrix.txt
# params:   data_path: /Users/robertmoseley/Desktop/Haase_lab/vivax-malaria/host_vivax_coupling/data/original/GSE56931/GSE56931_series_matrix.txt
#
# subset of: GSE56931_metadata.tsv
#   using patient BH020
#!Series_title	Blood gene expression reveals reduced circadian rhythmicity in individuals resistant to sleep deprivation
#!Series_geo_accession	GSE56931
#!Series_status	Public on Oct 02 2014
#!Series_submission_date	Apr 21 2014
#!Series_last_update_date	Mar 04 2015
#!Series_pubmed_id	25197809
#!Series_summary	To address whether changes in gene expression in blood cells with sleep loss are different in individuals resistant and sensitive to sleep deprivation (SD)., Blood draws every 4 hours during a 3-day study: 24-hour normal baseline, 38 hours of continuous wakefulness and subsequent recovery sleep, for a total of 19 time-points per subject, with every 2-hr psychomotor vigilance test (PVT) assessment when awake. Fourteen subjects who were previously identified as behaviourally resistant (n=7) or sensitive (n=7) to SD by PVT.  Intervention consisted of 38 hours continuous wakefulness. We found 4,481 unique genes with a significant 24-hour diurnal rhythm during a normal sleep-wake cycle in blood (false discovery rate [FDR] <5%). Biological pathways were enriched for biosynthetic processes during sleep. After accounting for circadian effects, two genes (SREBF1 and CPT1A, both involved in lipid metabolism) exhibited small, but significant, linear changes in expression with the duration of SD (FDR<5%). The main change with SD was a reduction in the amplitude of the diurnal rhythm of expression of normally cycling probe sets. This reduction was noticeably higher in behaviourally resistant subjects than sensitive subjects, at any given p-value. Furthermore, blood cell type enrichment analysis showed that the expression pattern difference between sensitive and resistant subjects is mainly found in cells of myeloid origin, such as monocytes. Individual differences in behavioural effects of sleep deprivation are associated with differences in diurnal amplitude of gene expression for genes that show circadian rhythmicity.
#!Series_overall_design	Blood draws were done every 4 hours during a 3-day (+1 baseline day) study: 24-hour normal baseline (6 time points: day 1 8hr, 12hr, 16hr, 20hr, day 2 0hr, 4hr), 38 hours of continuous wakefulness (10 time points: day 2 8hr, 12hr, 16hr, 20hr, day 3 0hr, 4hr, 8hr, 12hr, 16hr, 20hr) and subsequent recovery sleep (3 time points: day 4 0hr, 4hr, 8hr), for a total of 19 time-points per subject, with every 2-hr psychomotor vigilance test (PVT) assessment when awake. The missing/failed samples were as following: Resistant subjects (total 10 samples): BH006 day 2 20hr, 12hr, BH003 day 2 12hr, 4hr, BH003 day 3 4hr, BH008 day 4 0hr, BH008 day 1 16hr, BH008 day 3 16hr 20hr, BH010 day 4 0hr; Sensitive subjects (total 7 samples): BH004 day 2 12hr and 1 more missing sample, BH026 day 2 4hr, BH007 day 2 20hr and 1 more missing sample, BH016 day 2 4hr, BH015 day 3 0hr.
#
# 
title	geo_accession	file	experiment	condition	patient_id	hour	day	organism	characteristics	pvt_response	sample_type	sex
patient BH020, low responder, male, day1, hour 8, baseline	GSM1371668	GSM1371668__52070900797040031010407111021399_1_1.CEL.gz	Shockley2014	baseline	BH020	8	1	Homo sapiens	patient: BH020, responder: low, Sex: male, day: 1, hour: 8, biological group: baseline	low responder	RNA	male
patient BH020, low responder, male, day1, hour12, baseline	GSM1371653	GSM1371653__52070900797039031010407111021358_1_1.CEL.gz	Shockley2014	baseline	BH020	12	1	Homo sapiens	patient: BH020, responder: low, Sex: male, day: 1, hour: 12, biological group: baseline	low responder	RNA	male
patient BH020, low responder, male, day1, hour16, baseline	GSM1371674	GSM1371674__52070900797040031010407111021408_1_1.CEL.gz	Shockley2014	baseline	BH020	16	1	Homo sapiens	patient: BH020, responder: low, Sex: male, day: 1, hour: 16, biological group: baseline	low responder	RNA	male
patient BH020, low responder, male, day1, hour20, baseline	GSM1371617	GSM1371617__52070900797037031010407111021205_1_1.CEL.gz	Shockley2014	baseline	BH020	20	1	Homo sapiens	patient: BH020, responder: low, Sex: male, day: 1, hour: 20, biological group: baseline	low responder	RNA	male
patient BH020, low responder, male, day2, hour 0, baseline	GSM1371646	GSM1371646__52070900797039031010407111021318_1_1.CEL.gz	Shockley2014	baseline	BH020	0	2	Homo sapiens	patient: BH020, responder: low, Sex: male, day: 2, hour: 0, biological group: baseline	low responder	RNA	male
patient BH020, low responder, male, day2, hour 4, baseline	GSM1371639	GSM1371639__52070900797038031010407111021262_1_1.CEL.gz	Shockley2014	baseline	BH020	4	2	Homo sapiens	patient: BH020, responder: low, Sex: male, day: 2, hour: 4, biological group: baseline	low responder	RNA	male
patient BH020, low responder, male, day2, hour 8, baseline	GSM1371659	GSM1371659__52070900797040031010407111021382_1_1.CEL.gz	Shockley2014	baseline	BH020	8	2	Homo sapiens	patient: BH020, responder: low, Sex: male, day: 2, hour: 8, biological group: baseline	low responder	RNA	male
patient BH020, low responder, male, day2, hour12, baseline	GSM1371642	GSM1371642__52070900797038031010407111021288_1_1.CEL.gz	Shockley2014	baseline	BH020	12	2	Homo sapiens	patient: BH020, responder: low, Sex: male, day: 2, hour: 12, biological group: baseline	low responder	RNA	male
patient BH020, low responder, male, day2, hour16, baseline	GSM1371660	GSM1371660__52070900797040031010407111021387_1_1.CEL.gz	Shockley2014	baseline	BH020	16	2	Homo sapiens	patient: BH020, responder: low, Sex: male, day: 2, hour: 16, biological group: baseline	low responder	RNA	male
patient BH020, low responder, male, day2, hour20, baseline	GSM1371673	GSM1371673__52070900797040031010407111021407_1_1.CEL.gz	Shockley2014	baseline	BH020	20	2	Homo sapiens	patient: BH020, responder: low, Sex: male, day: 2, hour: 20, biological group: baseline	low responder	RNA	male
patient BH020, low responder, male, day3, hour 0, sleepdep	GSM1371633	GSM1371633__52070900797037031010407111021234_1_1.CEL.gz	Shockley2014	sleepdep	BH020	0	3	Homo sapiens	patient: BH020, responder: low, Sex: male, day: 3, hour: 0, biological group: sleep deprivation	low responder	RNA	male
patient BH020, low responder, male, day3, hour 4, sleepdep	GSM1371641	GSM1371641__52070900797038031010407111021279_1_1.CEL.gz	Shockley2014	sleepdep	BH020	4	3	Homo sapiens	patient: BH020, responder: low, Sex: male, day: 3, hour: 4, biological group: sleep deprivation	low responder	RNA	male
patient BH020, low responder, male, day3, hour 8, sleepdep	GSM1371652	GSM1371652__52070900797039031010407111021357_1_1.CEL.gz	Shockley2014	sleepdep	BH020	8	3	Homo sapiens	patient: BH020, responder: low, Sex: male, day: 3, hour: 8, biological group: sleep deprivation	low responder	RNA	male
patient BH020, low responder, male, day3, hour12, sleepdep	GSM1371666	GSM1371666__52070900797040031010407111021395_1_1.CEL.gz	Shockley2014	sleepdep	BH020	12	3	Homo sapiens	patient: BH020, responder: low, Sex: male, day: 3, hour: 12, biological group: sleep deprivation	low responder	RNA	male
patient BH020, low responder, male, day3, hour16, sleepdep	GSM1371681	GSM1371681__52070900797040031010407111021417_1_1.CEL.gz	Shockley2014	sleepdep	BH020	16	3	Homo sapiens	patient: BH020, responder: low, Sex: male, day: 3, hour: 16, biological group: sleep deprivation	low responder	RNA	male
patient BH020, low responder, male, day3, hour20, sleepdep	GSM1371649	GSM1371649__52070900797039031010407111021329_1_1.CEL.gz	Shockley2014	sleepdep	BH020	20	3	Homo sapiens	patient: BH020, responder: low, Sex: male, day: 3, hour: 20, biological group: sleep deprivation	low responder	RNA	male
patient BH020, low responder, male, day4, hour 0, recovery	GSM1371675	GSM1371675__52070900797040031010407111021409_1_1.CEL.gz	Shockley2014	recovery	BH020	0	4	Homo sapiens	patient: BH020, responder: low, Sex: male, day: 4, hour: 0, biological group: recovery	low responder	RNA	male
patient BH020, low responder, male, day4, hour 4, recovery	GSM1371680	GSM1371680__52070900797040031010407111021416_1_1.CEL.gz	Shockley2014	recovery	BH020	4	4	Homo sapiens	patient: BH020, responder: low, Sex: male, day: 4, hour: 4, biological group: recovery	low responder	RNA	male
patient BH020, low responder, male, day4, hour 8, recovery	GSM1371658	GSM1371658__52070900797040031010407111021381_1_1.CEL.gz	Shockley2014	recovery	BH020	8	4	Homo sapiens	patient: BH020, responder: low, Sex: male, day: 4, hour: 8, biological group: recovery	low responder	RNA	male
